…
```{r}
bing_word_counts <- tidy_books %>%
  inner_join(get_sentiments("bing")) %>%
  count(word, sentiment, sort = TRUE) %>%
  ungroup()

bing_word_counts
#> # A tibble: 2,585 × 3
#>    word     sentiment     n
#>    <chr>    <chr>     <int>
#>  1 miss     negative   1855
#>  2 well     positive   1523
#>  3 good     positive   1380
#>  4 great    positive    981
#>  5 like     positive    725
#>  6 better   positive    639
#>  7 enough   positive    613
#>  8 happy    positive    534
#>  9 love     positive    495
#> 10 pleasure positive    462
#> # ℹ 2,575 more rows
```
…
